{
    "name": "field",
    "shaders": ["shaders/field.vert", "shaders/field.frag"]
	//"shaders": ["shaders/static.vert", "shaders/static.frag"]
	//"shaders": ["shaders/model.vert", "shaders/model.frag"]
}
