<?xml version='1.0' encoding='UTF-8'?>
<osm version="0.6" generator="osmconvert 0.8.4" timestamp="2019-07-01T01:59:44Z">
	<bounds minlat="45.314" minlon="28.141" maxlat="45.323" maxlon="28.1570002"/>
	<node id="245562549" lat="45.3214103" lon="28.1518128" version="1"/>
	<node id="245562550" lat="45.3200147" lon="28.1515607" version="1"/>
	<node id="245562551" lat="45.3157044" lon="28.1491183" version="1"/>
	<node id="245562552" lat="45.3153377" lon="28.1487478" version="1"/>
	<node id="245562553" lat="45.3150528" lon="28.1485861" version="1"/>
	<node id="276582347" lat="45.3143295" lon="28.1484673" version="1"/>
	<node id="276582348" lat="45.3154964" lon="28.1488795" version="1"/>
	<node id="276582349" lat="45.3158869" lon="28.1493169" version="1"/>
	<node id="276582350" lat="45.3207485" lon="28.1518472" version="1"/>
	<node id="276582351" lat="45.3209469" lon="28.1518618" version="1"/>
	<node id="978956530" lat="45.321404" lon="28.156971" version="1"/>
	<node id="978956597" lat="45.321711" lon="28.155963" version="1"/>
	<node id="978956643" lat="45.32244" lon="28.154633" version="1"/>
	<node id="1012101415" lat="45.315972" lon="28.147328" version="1"/>
	<node id="1012101420" lat="45.31407" lon="28.146779" version="1"/>
	<node id="1012101599" lat="45.3211239" lon="28.1486668" version="1"/>
	<node id="1016200261" lat="45.314283" lon="28.154633" version="1"/>
	<node id="1016200263" lat="45.314713" lon="28.153462" version="1"/>
	<node id="1016200268" lat="45.314847" lon="28.151864" version="1"/>
	<node id="1016200281" lat="45.31493" lon="28.149417" version="1"/>
	<node id="1016200283" lat="45.3158315" lon="28.1495517" version="1"/>
	<node id="1016200288" lat="45.316893" lon="28.149712" version="1"/>
	<node id="1016200293" lat="45.318907" lon="28.15076" version="1"/>
	<node id="1016200294" lat="45.321578" lon="28.151325" version="1"/>
	<node id="1016271989" lat="45.316411" lon="28.156027" version="1"/>
	<node id="1016271997" lat="45.315409" lon="28.155414" version="1"/>
	<node id="1016272016" lat="45.314872" lon="28.155155" version="1"/>
	<node id="1016272036" lat="45.314573" lon="28.155315" version="1"/>
	<node id="1016272068" lat="45.314453" lon="28.15565" version="1"/>
	<node id="1016272083" lat="45.314389" lon="28.156152" version="1"/>
	<node id="1016272094" lat="45.314503" lon="28.156493" version="1"/>
	<node id="2069738147" lat="45.3140783" lon="28.1542619" version="1">
		<tag k="power" v="tower"/>
	</node>
	<node id="2069738151" lat="45.3146002" lon="28.1430937" version="1">
		<tag k="power" v="tower"/>
	</node>
	<node id="2069738152" lat="45.3146628" lon="28.1478668" version="1">
		<tag k="power" v="tower"/>
	</node>
	<node id="2069738153" lat="45.3146802" lon="28.150736" version="1">
		<tag k="power" v="tower"/>
	</node>
	<node id="2069738159" lat="45.3155916" lon="28.1511337" version="1">
		<tag k="power" v="tower"/>
	</node>
	<node id="2069738160" lat="45.3156378" lon="28.1480371" version="1">
		<tag k="power" v="tower"/>
	</node>
	<node id="2272689279" lat="45.3140272" lon="28.145598" version="1"/>
	<node id="2272689280" lat="45.314244" lon="28.1479073" version="1"/>
	<node id="2272689281" lat="45.3143068" lon="28.1456602" version="1"/>
	<node id="2272689282" lat="45.3144823" lon="28.145766" version="1"/>
	<node id="2272689283" lat="45.3144971" lon="28.1476486" version="1"/>
	<node id="2272689284" lat="45.314686" lon="28.145894" version="1"/>
	<node id="2272689285" lat="45.3146084" lon="28.1474465" version="1"/>
	<node id="2272689286" lat="45.3146601" lon="28.1471223" version="1"/>
	<node id="2272689287" lat="45.3148158" lon="28.1460367" version="1"/>
	<node id="2272689288" lat="45.3147337" lon="28.1468624" version="1"/>
	<node id="2272689289" lat="45.314842" lon="28.1465514" version="1"/>
	<node id="2272689290" lat="45.3148483" lon="28.146266" version="1"/>
	<node id="2377920246" lat="45.3140642" lon="28.1483146" version="1">
		<tag k="man_made" v="water_well"/>
	</node>
	<node id="4803457060" lat="45.3163715" lon="28.1484666" version="1"/>
	<node id="4803840613" lat="45.3151662" lon="28.1463022" version="1"/>
	<node id="5179471003" lat="45.3167748" lon="28.1492548" version="1"/>
	<node id="5179471004" lat="45.3167871" lon="28.1493548" version="1"/>
	<node id="5179471005" lat="45.3168212" lon="28.1494439" version="1"/>
	<node id="5179471006" lat="45.3168737" lon="28.1495128" version="1"/>
	<node id="5179471007" lat="45.3172076" lon="28.1493301" version="1"/>
	<node id="5179471008" lat="45.3172137" lon="28.1492234" version="1"/>
	<node id="5179471009" lat="45.3171942" lon="28.1491199" version="1"/>
	<node id="5179471010" lat="45.3171512" lon="28.1490319" version="1"/>
	<node id="5179471011" lat="45.3169357" lon="28.1495529" version="1"/>
	<node id="5179471012" lat="45.3170034" lon="28.1495641" version="1"/>
	<node id="5179471013" lat="45.3170702" lon="28.1495453" version="1"/>
	<node id="5179471014" lat="45.3171298" lon="28.1494983" version="1"/>
	<node id="5179471015" lat="45.3170899" lon="28.1489697" version="1"/>
	<node id="5179471016" lat="45.3170174" lon="28.1489405" version="1"/>
	<node id="5179471017" lat="45.3169423" lon="28.1489479" version="1"/>
	<node id="5179471018" lat="45.3168733" lon="28.1489908" version="1"/>
	<node id="5179471019" lat="45.3167856" lon="28.1491544" version="1"/>
	<node id="5179471020" lat="45.3168185" lon="28.1490643" version="1"/>
	<node id="5179473621" lat="45.3171765" lon="28.1494277" version="1"/>
	<node id="5179473622" lat="45.3166198" lon="28.1497967" version="1"/>
	<node id="5179473623" lat="45.3163252" lon="28.1496981" version="1"/>
	<node id="6214427607" lat="45.3141084" lon="28.1542903" version="1"/>
	<node id="6214427608" lat="45.3142546" lon="28.1542816" version="1"/>
	<node id="6214427609" lat="45.3145439" lon="28.1545371" version="1"/>
	<node id="6214427610" lat="45.3149002" lon="28.1548229" version="1"/>
	<node id="6214427611" lat="45.3149824" lon="28.1550611" version="1"/>
	<node id="6214427612" lat="45.3151377" lon="28.1554812" version="1"/>
	<node id="6214427613" lat="45.3158046" lon="28.1562563" version="1"/>
	<node id="6214427614" lat="45.3163192" lon="28.1569016" version="1"/>
	<node id="6367746371" lat="45.3205302" lon="28.1517738" version="1"/>
	<node id="6367746372" lat="45.3177992" lon="28.1500947" version="1"/>
	<node id="6367746373" lat="45.3173239" lon="28.14962" version="1"/>
	<node id="6367746374" lat="45.3167449" lon="28.14973" version="1"/>
	<node id="6367746375" lat="45.3168147" lon="28.1496441" version="1"/>
	<node id="6367746376" lat="45.3161395" lon="28.1481099" version="1"/>
	<node id="6367746377" lat="45.3156566" lon="28.147316" version="1"/>
	<node id="6367746378" lat="45.3147248" lon="28.1451702" version="1"/>
	<node id="6367746379" lat="45.3143929" lon="28.1439686" version="1"/>
	<node id="6508347945" lat="45.3204486" lon="28.1490801" version="1"/>
	<node id="6508347946" lat="45.3205026" lon="28.1490782" version="1"/>
	<node id="6508347947" lat="45.3204891" lon="28.1494834" version="1"/>
	<node id="6508347948" lat="45.3204324" lon="28.1494834" version="1"/>
	<node id="6508347949" lat="45.3201326" lon="28.1488266" version="1"/>
	<node id="6508347950" lat="45.3201434" lon="28.1487441" version="1"/>
	<node id="6508347951" lat="45.3202272" lon="28.1487633" version="1"/>
	<node id="6508347952" lat="45.3202191" lon="28.1488478" version="1"/>
	<node id="6508349288" lat="45.3167638" lon="28.1477886" version="1"/>
	<node id="6508349289" lat="45.3168105" lon="28.1476778" version="1"/>
	<node id="6508349290" lat="45.3168434" lon="28.1477" version="1"/>
	<node id="6508349291" lat="45.3167967" lon="28.1478231" version="1"/>
	<node id="6508349292" lat="45.3165958" lon="28.1481185" version="1"/>
	<node id="6508349293" lat="45.3166478" lon="28.1479905" version="1"/>
	<node id="6508349294" lat="45.3166945" lon="28.1480299" version="1"/>
	<node id="6508349295" lat="45.3166495" lon="28.1481506" version="1"/>
	<node id="6508362888" lat="45.3200786" lon="28.1484521" version="1"/>
	<node id="6508362889" lat="45.3201232" lon="28.1484579" version="1"/>
	<node id="6508362890" lat="45.3201178" lon="28.1485117" version="1"/>
	<node id="6508362891" lat="45.3200759" lon="28.148504" version="1"/>
	<node id="6508362892" lat="45.3203608" lon="28.1485539" version="1"/>
	<node id="6508362893" lat="45.3203973" lon="28.1485501" version="1"/>
	<node id="6508362894" lat="45.3203987" lon="28.1485923" version="1"/>
	<node id="6508362895" lat="45.3203635" lon="28.1485962" version="1"/>
	<node id="6508362896" lat="45.3203271" lon="28.1487364" version="1"/>
	<node id="6508362897" lat="45.3203689" lon="28.1487364" version="1"/>
	<node id="6508362898" lat="45.3203703" lon="28.1487844" version="1"/>
	<node id="6508362899" lat="45.3203298" lon="28.1487882" version="1"/>
	<node id="6508370773" lat="45.3196883" lon="28.1495833" version="1"/>
	<node id="6508370774" lat="45.3197253" lon="28.1495934" version="1"/>
	<node id="6508370775" lat="45.3197241" lon="28.1496341" version="1"/>
	<node id="6508370776" lat="45.3196859" lon="28.1496274" version="1"/>
	<node id="6508378154" lat="45.3170069" lon="28.147822" version="1"/>
	<node id="6508378155" lat="45.3170313" lon="28.1477588" version="1"/>
	<node id="6508378156" lat="45.3170624" lon="28.1477809" version="1"/>
	<node id="6508378157" lat="45.317038" lon="28.1478472" version="1"/>
	<node id="6508378158" lat="45.3170424" lon="28.1477052" version="1"/>
	<node id="6508378159" lat="45.3171046" lon="28.1475378" version="1"/>
	<node id="6508378160" lat="45.3171556" lon="28.1475757" version="1"/>
	<node id="6508378161" lat="45.3170913" lon="28.1477367" version="1"/>
	<node id="6508378162" lat="45.3179401" lon="28.1486856" version="1"/>
	<node id="6508378163" lat="45.317964" lon="28.1486211" version="1"/>
	<node id="6508378164" lat="45.3180141" lon="28.1486635" version="1"/>
	<node id="6508378165" lat="45.3179902" lon="28.1487212" version="1"/>
	<node id="6508378166" lat="45.3194701" lon="28.1496664" version="1"/>
	<node id="6508378167" lat="45.3194951" lon="28.1494459" version="1"/>
	<node id="6508378168" lat="45.319544" lon="28.1494561" version="1"/>
	<node id="6508378169" lat="45.3195273" lon="28.1496799" version="1"/>
	<node id="6508378170" lat="45.3195905" lon="28.149741" version="1"/>
	<node id="6508378171" lat="45.3196096" lon="28.149546" version="1"/>
	<node id="6508378172" lat="45.3196656" lon="28.1495561" version="1"/>
	<node id="6508378173" lat="45.3196513" lon="28.1497461" version="1"/>
	<node id="6508394896" lat="45.3148182" lon="28.1466943" version="1"/>
	<node id="6508394897" lat="45.315066" lon="28.146706" version="1"/>
	<node id="6508394898" lat="45.3156115" lon="28.1469175" version="1"/>
	<node id="6508394899" lat="45.3157355" lon="28.146894" version="1"/>
	<node id="6508394900" lat="45.3160247" lon="28.1465179" version="1"/>
	<node id="6508394901" lat="45.3162024" lon="28.1465355" version="1"/>
	<node id="6508394902" lat="45.3169669" lon="28.1471761" version="1"/>
	<node id="6508394903" lat="45.3175702" lon="28.1476168" version="1"/>
	<node id="6508394904" lat="45.3180619" lon="28.147987" version="1"/>
	<node id="6508394905" lat="45.3188388" lon="28.1485806" version="1"/>
	<node id="6508394906" lat="45.3193884" lon="28.1488098" version="1"/>
	<node id="6508394907" lat="45.3196735" lon="28.1489508" version="1"/>
	<node id="6508394908" lat="45.3198181" lon="28.1492035" version="1"/>
	<node id="6508394909" lat="45.3199503" lon="28.1495326" version="1"/>
	<node id="6508394910" lat="45.3201404" lon="28.1496207" version="1"/>
	<node id="6508394911" lat="45.32069" lon="28.1497148" version="1"/>
	<node id="6508394912" lat="45.3211651" lon="28.1496031" version="1"/>
	<node id="6508394913" lat="45.3216734" lon="28.1496971" version="1"/>
	<node id="6508394914" lat="45.3218841" lon="28.1496501" version="1"/>
	<node id="6508394915" lat="45.322227" lon="28.1495149" version="1"/>
	<node id="6508394916" lat="45.322979" lon="28.1494033" version="1"/>
	<node id="6508395456" lat="45.3161259" lon="28.1473161" version="1"/>
	<node id="6508395457" lat="45.316161" lon="28.1472623" version="1"/>
	<node id="6508395458" lat="45.3162947" lon="28.147439" version="1"/>
	<node id="6508395459" lat="45.3162609" lon="28.1474928" version="1"/>
	<node id="6508395460" lat="45.3161583" lon="28.1477348" version="1"/>
	<node id="6508395461" lat="45.3161907" lon="28.1476714" version="1"/>
	<node id="6508395462" lat="45.3162218" lon="28.1476964" version="1"/>
	<node id="6508395463" lat="45.316242" lon="28.1476503" version="1"/>
	<node id="6508395464" lat="45.3162731" lon="28.1476791" version="1"/>
	<node id="6508395465" lat="45.3162164" lon="28.1477847" version="1"/>
	<node id="6508395466" lat="45.316242" lon="28.1478212" version="1"/>
	<node id="6508395467" lat="45.3163109" lon="28.1476503" version="1"/>
	<node id="6508395468" lat="45.3163433" lon="28.1476733" version="1"/>
	<node id="6508395469" lat="45.3162798" lon="28.1478481" version="1"/>
	<node id="6508395470" lat="45.3160583" lon="28.1472527" version="1"/>
	<node id="6508395471" lat="45.3160732" lon="28.1472278" version="1"/>
	<node id="6508395472" lat="45.3161016" lon="28.1472527" version="1"/>
	<node id="6508395473" lat="45.3160921" lon="28.1472796" version="1"/>
	<node id="6508396096" lat="45.3205193" lon="28.1503765" version="1"/>
	<node id="6508396097" lat="45.3205635" lon="28.1503735" version="1"/>
	<node id="6508396098" lat="45.3205625" lon="28.1504275" version="1"/>
	<node id="6508396099" lat="45.3205182" lon="28.150429" version="1"/>
	<node id="6508404465" lat="45.3140471" lon="28.1481178" version="1"/>
	<node id="6508404466" lat="45.3140415" lon="28.1482939" version="1"/>
	<node id="6508404467" lat="45.3140769" lon="28.1482939" version="1"/>
	<node id="6508404468" lat="45.3140741" lon="28.1483441" version="1"/>
	<node id="6508404469" lat="45.3140415" lon="28.1483428" version="1"/>
	<node id="6509036474" lat="45.3142587" lon="28.1449261" version="1"/>
	<node id="6509036475" lat="45.3142587" lon="28.1451782" version="1"/>
	<node id="6509036476" lat="45.3143734" lon="28.1457003" version="1"/>
	<way id="24854198" version="1">
		<nd ref="2069738152"/>
		<nd ref="2069738153"/>
		<tag k="power" v="line"/>
		<tag k="cables" v="3"/>
		<tag k="voltage" v="400000"/>
	</way>
	<way id="84152067" version="1">
		<nd ref="978956530"/>
		<nd ref="978956597"/>
		<nd ref="978956643"/>
		<tag k="source" v="European Environment Agency (EEA), CORINE Land Cover, 2006"/>
		<tag k="landuse" v="vineyard"/>
		<tag k="CLC:code" v="221"/>
		<tag k="CLC:year" v="2006"/>
		<tag k="source:ro" v="Agenţia Europeană de Mediu, CORINE Land Cover, 2006"/>
		<tag k="CLC:shapeId" v="12649"/>
		<tag k="CLC:explanation" v="See http://wiki.openstreetmap.org/wiki/Romania_CLC_Import."/>
	</way>
	<way id="86988861" version="1">
		<nd ref="1012101415"/>
		<nd ref="1012101420"/>
		<nd ref="1012101599"/>
		<nd ref="1012101415"/>
		<tag k="source" v="European Environment Agency (EEA), CORINE Land Cover, 2006"/>
		<tag k="landuse" v="meadow"/>
		<tag k="CLC:code" v="231"/>
		<tag k="CLC:year" v="2006"/>
		<tag k="source:ro" v="Agenţia Europeană de Mediu, CORINE Land Cover, 2006"/>
		<tag k="CLC:shapeId" v="123460"/>
		<tag k="CLC:explanation" v="See http://wiki.openstreetmap.org/wiki/Romania_CLC_Import."/>
	</way>
	<way id="87397163" version="1">
		<nd ref="1016200261"/>
		<nd ref="1016200263"/>
		<nd ref="1016200268"/>
		<nd ref="1016200281"/>
		<nd ref="1016200283"/>
		<nd ref="1016200288"/>
		<nd ref="1016200293"/>
		<nd ref="1016200294"/>
		<tag k="CLC:explanation" v="See http://wiki.openstreetmap.org/wiki/Romania_CLC_Import."/>
	</way>
	<way id="87397852" version="1">
		<nd ref="978956643"/>
		<nd ref="978956597"/>
		<nd ref="978956530"/>
		<tag k="CLC:explanation" v="See http://wiki.openstreetmap.org/wiki/Romania_CLC_Import."/>
	</way>
	<way id="87397924" version="1">
		<nd ref="1016271989"/>
		<nd ref="1016271997"/>
		<nd ref="1016272016"/>
		<nd ref="1016272036"/>
		<nd ref="1016272068"/>
		<nd ref="1016272083"/>
		<nd ref="1016272094"/>
		<tag k="CLC:explanation" v="See http://wiki.openstreetmap.org/wiki/Romania_CLC_Import."/>
	</way>
	<way id="87601474" version="1">
		<nd ref="1016200294"/>
		<nd ref="1016200293"/>
		<nd ref="1016200288"/>
		<nd ref="1016200283"/>
		<nd ref="1016200281"/>
		<nd ref="1016200268"/>
		<nd ref="1016200263"/>
		<nd ref="1016200261"/>
		<nd ref="1012101420"/>
		<nd ref="1012101415"/>
		<nd ref="1012101599"/>
		<tag k="source" v="European Environment Agency (EEA), CORINE Land Cover, 2006"/>
		<tag k="landuse" v="farmland"/>
		<tag k="CLC:code" v="242"/>
		<tag k="CLC:year" v="2006"/>
		<tag k="source:ro" v="Agenţia Europeană de Mediu, CORINE Land Cover, 2006"/>
		<tag k="CLC:shapeId" v="124880"/>
		<tag k="CLC:explanation" v="See http://wiki.openstreetmap.org/wiki/Romania_CLC_Import."/>
	</way>
	<way id="87859201" version="1">
		<nd ref="1016272094"/>
		<nd ref="1016272083"/>
		<nd ref="1016272068"/>
		<nd ref="1016272036"/>
		<nd ref="1016272016"/>
		<nd ref="1016271997"/>
		<nd ref="1016271989"/>
		<tag k="source" v="European Environment Agency (EEA), CORINE Land Cover, 2006"/>
		<tag k="landuse" v="farmland"/>
		<tag k="CLC:code" v="243"/>
		<tag k="CLC:year" v="2006"/>
		<tag k="source:ro" v="Agenţia Europeană de Mediu, CORINE Land Cover, 2006"/>
		<tag k="CLC:shapeId" v="157680"/>
		<tag k="CLC:explanation" v="See http://wiki.openstreetmap.org/wiki/Romania_CLC_Import."/>
	</way>
	<way id="196672666" version="1">
		<nd ref="2069738147"/>
		<nd ref="2069738159"/>
		<nd ref="2069738160"/>
		<nd ref="2069738151"/>
		<tag k="power" v="line"/>
		<tag k="cables" v="6"/>
		<tag k="voltage" v="400000"/>
	</way>
	<way id="217959559" version="1">
		<nd ref="2272689279"/>
		<nd ref="2272689281"/>
		<nd ref="6509036476"/>
		<nd ref="2272689282"/>
		<nd ref="2272689284"/>
		<nd ref="2272689287"/>
		<nd ref="2272689290"/>
		<nd ref="2272689289"/>
		<nd ref="6508394896"/>
		<nd ref="2272689288"/>
		<nd ref="2272689286"/>
		<nd ref="2272689285"/>
		<nd ref="2272689283"/>
		<nd ref="2272689280"/>
		<nd ref="6508404465"/>
		<tag k="highway" v="unclassified"/>
	</way>
	<way id="226053855" version="1">
		<nd ref="276582347"/>
		<nd ref="245562553"/>
		<nd ref="245562552"/>
		<nd ref="276582348"/>
		<nd ref="245562551"/>
		<nd ref="276582349"/>
		<nd ref="5179473623"/>
		<nd ref="245562550"/>
		<nd ref="6367746371"/>
		<nd ref="276582350"/>
		<nd ref="276582351"/>
		<nd ref="245562549"/>
		<tag k="ref" v="DN22"/>
		<tag k="lanes" v="2"/>
		<tag k="oneway" v="no"/>
		<tag k="highway" v="trunk"/>
		<tag k="int_ref" v="E 87"/>
		<tag k="nat_ref" v="DN22"/>
		<tag k="surface" v="asphalt"/>
		<tag k="maxspeed" v="100"/>
		<tag k="smoothness" v="good"/>
		<tag k="surface_survey" v="15IUN2011 owene@hartamoto"/>
	</way>
	<way id="229163547" version="1">
		<nd ref="276582347"/>
		<tag k="ref" v="DN22"/>
		<tag k="lanes" v="2"/>
		<tag k="oneway" v="no"/>
		<tag k="highway" v="trunk"/>
		<tag k="int_ref" v="E 87"/>
		<tag k="nat_ref" v="DN22"/>
		<tag k="surface" v="asphalt"/>
		<tag k="maxspeed" v="50"/>
		<tag k="smoothness" v="good"/>
		<tag k="surface_survey" v="15IUN2011 owene@hartamoto"/>
	</way>
	<way id="533952361" version="1">
		<nd ref="5179471015"/>
		<nd ref="5179471016"/>
		<nd ref="5179471017"/>
		<nd ref="5179471018"/>
		<nd ref="5179471020"/>
		<nd ref="5179471019"/>
		<nd ref="5179471003"/>
		<nd ref="5179471004"/>
		<nd ref="5179471005"/>
		<nd ref="5179471006"/>
		<nd ref="5179471011"/>
		<nd ref="5179471012"/>
		<nd ref="5179471013"/>
		<nd ref="5179471014"/>
		<nd ref="5179473621"/>
		<nd ref="5179471007"/>
		<nd ref="5179471008"/>
		<nd ref="5179471009"/>
		<nd ref="5179471010"/>
		<nd ref="5179471015"/>
		<tag k="ref" v="DN22"/>
		<tag k="name" v="Realocare DN22"/>
		<tag k="lanes" v="2"/>
		<tag k="oneway" v="yes"/>
		<tag k="status" v="AC,builder:Astaldi,progress:1%/19.04.2019"/>
		<tag k="highway" v="construction"/>
		<tag k="junction" v="roundabout"/>
		<tag k="construction" v="trunk"/>
	</way>
	<way id="533952362" version="1">
		<nd ref="5179473621"/>
		<nd ref="6367746373"/>
		<nd ref="6367746372"/>
		<nd ref="245562550"/>
		<tag k="ref" v="DN22"/>
		<tag k="name" v="Realocare DN22"/>
		<tag k="lanes" v="2"/>
		<tag k="oneway" v="no"/>
		<tag k="status" v="AC,builder:Astaldi,progress:1%/19.04.2019"/>
		<tag k="highway" v="construction"/>
		<tag k="construction" v="trunk"/>
	</way>
	<way id="533952363" version="1">
		<nd ref="5179471006"/>
		<nd ref="6367746375"/>
		<nd ref="6367746374"/>
		<nd ref="5179473622"/>
		<nd ref="5179473623"/>
		<tag k="ref" v="DN22"/>
		<tag k="name" v="Realocare DN22"/>
		<tag k="lanes" v="2"/>
		<tag k="oneway" v="no"/>
		<tag k="status" v="AC,builder:Astaldi,progress:1%/19.04.2019"/>
		<tag k="highway" v="construction"/>
		<tag k="construction" v="trunk"/>
	</way>
	<way id="663936806" version="1">
		<nd ref="6214427607"/>
		<nd ref="6214427608"/>
		<nd ref="6214427609"/>
		<nd ref="6214427610"/>
		<nd ref="6214427611"/>
		<nd ref="6214427612"/>
		<nd ref="6214427613"/>
		<nd ref="6214427614"/>
		<tag k="highway" v="track"/>
	</way>
	<way id="680081456" version="1">
		<nd ref="6367746379"/>
		<nd ref="6367746378"/>
		<nd ref="4803840613"/>
		<nd ref="6367746377"/>
		<nd ref="6367746376"/>
		<nd ref="4803457060"/>
		<nd ref="5179471020"/>
		<tag k="name" v="DNXX Braila-Jijila"/>
		<tag k="lanes" v="2"/>
		<tag k="oneway" v="no"/>
		<tag k="status" v="AC,builder:Astaldi,progress:1%/19.04.2019"/>
		<tag k="highway" v="construction"/>
		<tag k="construction" v="trunk"/>
	</way>
	<way id="693267160" version="1">
		<nd ref="6508347945"/>
		<nd ref="6508347946"/>
		<nd ref="6508347947"/>
		<nd ref="6508347948"/>
		<nd ref="6508347945"/>
		<tag k="building" v="yes"/>
	</way>
	<way id="693267161" version="1">
		<nd ref="6508347949"/>
		<nd ref="6508347950"/>
		<nd ref="6508347951"/>
		<nd ref="6508347952"/>
		<nd ref="6508347949"/>
		<tag k="building" v="yes"/>
	</way>
	<way id="693267264" version="1">
		<nd ref="6508362888"/>
		<nd ref="6508362889"/>
		<nd ref="6508362890"/>
		<nd ref="6508362891"/>
		<nd ref="6508362888"/>
		<tag k="building" v="yes"/>
	</way>
	<way id="693267265" version="1">
		<nd ref="6508362892"/>
		<nd ref="6508362893"/>
		<nd ref="6508362894"/>
		<nd ref="6508362895"/>
		<nd ref="6508362892"/>
		<tag k="building" v="yes"/>
	</way>
	<way id="693267266" version="1">
		<nd ref="6508362896"/>
		<nd ref="6508362897"/>
		<nd ref="6508362898"/>
		<nd ref="6508362899"/>
		<nd ref="6508362896"/>
		<tag k="building" v="yes"/>
	</way>
	<way id="693268499" version="1">
		<nd ref="6508394896"/>
		<nd ref="6508394897"/>
		<nd ref="6508394898"/>
		<nd ref="6508394899"/>
		<nd ref="6508394900"/>
		<nd ref="6508394901"/>
		<nd ref="6508394902"/>
		<nd ref="6508394903"/>
		<nd ref="6508394904"/>
		<nd ref="6508394905"/>
		<nd ref="6508394906"/>
		<nd ref="6508394907"/>
		<nd ref="6508394908"/>
		<nd ref="6508394909"/>
		<nd ref="6508394910"/>
		<nd ref="6508394911"/>
		<nd ref="6508394912"/>
		<nd ref="6508394913"/>
		<nd ref="6508394914"/>
		<nd ref="6508394915"/>
		<nd ref="6508394916"/>
		<tag k="highway" v="track"/>
	</way>
	<way id="693268665" version="1">
		<nd ref="6508395456"/>
		<nd ref="6508395457"/>
		<nd ref="6508395458"/>
		<nd ref="6508395459"/>
		<nd ref="6508395456"/>
		<tag k="building" v="yes"/>
	</way>
	<way id="693268666" version="1">
		<nd ref="6508395460"/>
		<nd ref="6508395461"/>
		<nd ref="6508395462"/>
		<nd ref="6508395463"/>
		<nd ref="6508395464"/>
		<nd ref="6508395465"/>
		<nd ref="6508395460"/>
		<tag k="building" v="yes"/>
	</way>
	<way id="693268667" version="1">
		<nd ref="6508395466"/>
		<nd ref="6508395467"/>
		<nd ref="6508395468"/>
		<nd ref="6508395469"/>
		<nd ref="6508395466"/>
		<tag k="building" v="yes"/>
	</way>
	<way id="693268668" version="1">
		<nd ref="6508395470"/>
		<nd ref="6508395471"/>
		<nd ref="6508395472"/>
		<nd ref="6508395473"/>
		<nd ref="6508395470"/>
		<tag k="building" v="yes"/>
	</way>
	<way id="693268770" version="1">
		<nd ref="6508349288"/>
		<nd ref="6508349289"/>
		<nd ref="6508349290"/>
		<nd ref="6508349291"/>
		<nd ref="6508349288"/>
		<tag k="building" v="yes"/>
	</way>
	<way id="693268771" version="1">
		<nd ref="6508349292"/>
		<nd ref="6508349293"/>
		<nd ref="6508349294"/>
		<nd ref="6508349295"/>
		<nd ref="6508349292"/>
		<tag k="building" v="yes"/>
	</way>
	<way id="693268899" version="1">
		<nd ref="6508378154"/>
		<nd ref="6508378155"/>
		<nd ref="6508378156"/>
		<nd ref="6508378157"/>
		<nd ref="6508378154"/>
		<tag k="building" v="yes"/>
	</way>
	<way id="693268900" version="1">
		<nd ref="6508378158"/>
		<nd ref="6508378159"/>
		<nd ref="6508378160"/>
		<nd ref="6508378161"/>
		<nd ref="6508378158"/>
		<tag k="building" v="yes"/>
	</way>
	<way id="693268901" version="1">
		<nd ref="6508378162"/>
		<nd ref="6508378163"/>
		<nd ref="6508378164"/>
		<nd ref="6508378165"/>
		<nd ref="6508378162"/>
		<tag k="building" v="ruins"/>
	</way>
	<way id="693268902" version="1">
		<nd ref="6508378166"/>
		<nd ref="6508378167"/>
		<nd ref="6508378168"/>
		<nd ref="6508378169"/>
		<nd ref="6508378166"/>
		<tag k="building" v="yes"/>
	</way>
	<way id="693268903" version="1">
		<nd ref="6508378170"/>
		<nd ref="6508378171"/>
		<nd ref="6508378172"/>
		<nd ref="6508378173"/>
		<nd ref="6508378170"/>
		<tag k="building" v="yes"/>
	</way>
	<way id="693268983" version="1">
		<nd ref="6508370773"/>
		<nd ref="6508370774"/>
		<nd ref="6508370775"/>
		<nd ref="6508370776"/>
		<nd ref="6508370773"/>
		<tag k="building" v="yes"/>
	</way>
	<way id="693269527" version="1">
		<nd ref="6508396096"/>
		<nd ref="6508396097"/>
		<nd ref="6508396098"/>
		<nd ref="6508396099"/>
		<nd ref="6508396096"/>
		<tag k="building" v="yes"/>
	</way>
	<way id="693270923" version="1">
		<nd ref="6508404466"/>
		<nd ref="6508404467"/>
		<nd ref="6508404468"/>
		<nd ref="6508404469"/>
		<nd ref="6508404466"/>
		<tag k="man_made" v="water_well"/>
	</way>
	<way id="693341872" version="1">
		<nd ref="6509036474"/>
		<nd ref="6509036475"/>
		<nd ref="6509036476"/>
		<tag k="highway" v="track"/>
	</way>
	<relation id="103398" version="1">
		<member type="relation" ref="2751410" role=""/>
		<tag k="ref" v="DCP"/>
		<tag k="name" v="Danube Cycle Path"/>
		<tag k="type" v="superroute"/>
		<tag k="route" v="bicycle"/>
		<tag k="name:bg" v="Дунавски велосипеден маршрут"/>
		<tag k="name:de" v="Donauradweg"/>
		<tag k="name:en" v="Danube Cycle Path"/>
		<tag k="name:hu" v="Duna menti kerékpárút"/>
		<tag k="name:sk" v="Dunajská cyklistická cesta"/>
		<tag k="name:sr" v="Дунавска бициклистичка рута"/>
		<tag k="network" v="icn"/>
		<tag k="wikidata" v="Q540745"/>
		<tag k="wikipedia" v="de:Donauradweg"/>
		<tag k="description" v="International Danube Cyclepath from Donaueschingen to the Black Sea, Part of EV6"/>
		<tag k="name:sr-Latn" v="Dunavska biciklistička ruta"/>
	</relation>
	<relation id="156092" version="1">
		<member type="relation" ref="2393321" role="road"/>
		<tag k="to" v="Antalya (Turkey)"/>
		<tag k="ref" v="E 87"/>
		<tag k="from" v="Odessa (Ukraine)"/>
		<tag k="note" v="see http://wiki.openstreetmap.org/wiki/WikiProject_Europe/E-road_network"/>
		<tag k="type" v="route"/>
		<tag k="route" v="road"/>
		<tag k="name:en" v="European route E87"/>
		<tag k="name:fr" v="Route européenne E 87"/>
		<tag k="network" v="e-road"/>
		<tag k="wikidata" v="Q1376032"/>
		<tag k="wikipedia" v="en:European route E87"/>
		<tag k="e-road:class" v="A-intermediate"/>
		<tag k="description:fr" v="E 87 Odessa - Antalya"/>
	</relation>
	<relation id="1300211" version="1">
		<member type="way" ref="87397163" role="outer"/>
		<member type="way" ref="87397852" role="inner"/>
		<member type="way" ref="87397924" role="inner"/>
		<tag k="type" v="multipolygon"/>
		<tag k="source" v="European Environment Agency (EEA), CORINE Land Cover, 2006"/>
		<tag k="landuse" v="farmland"/>
		<tag k="CLC:code" v="211"/>
		<tag k="CLC:year" v="2006"/>
		<tag k="source:ro" v="Agenția Europeană de Mediu, CORINE Land Cover, 2006"/>
		<tag k="CLC:shapeId" v="123076"/>
	</relation>
	<relation id="2393321" version="1">
		<member type="way" ref="226053855" role=""/>
		<member type="way" ref="229163547" role=""/>
		<tag k="ref" v="E 87"/>
		<tag k="type" v="route"/>
		<tag k="route" v="road"/>
		<tag k="name:bg" v="Европейски път Е 87, Румъния"/>
		<tag k="name:de" v="Europastraße 87, Rumänien"/>
		<tag k="name:en" v="European route E87, Romania"/>
		<tag k="name:ru" v="Еропейский маршрут E 87, Румыния"/>
		<tag k="network" v="e-road"/>
		<tag k="wikidata" v="Q1376032"/>
		<tag k="wikipedia" v="en:European route E87"/>
	</relation>
	<relation id="2751410" version="1">
		<member type="way" ref="229163547" role=""/>
		<member type="way" ref="226053855" role=""/>
		<tag k="ref" v="EV6"/>
		<tag k="name" v="Danube Bike Trail"/>
		<tag k="note" v="EV6 in Romania - Ion Corvin - Tulcea"/>
		<tag k="type" v="route"/>
		<tag k="route" v="bicycle"/>
		<tag k="name:de" v="Donauradweg RO Teil 4.1"/>
		<tag k="name:en" v="Danube Cycle Path - part Romania - leg 4.1"/>
		<tag k="name:hu" v="Duna menti kerékpárút – Romániai 4.1 szakasz"/>
		<tag k="name:sr" v="Дунавски бициклистички пут"/>
		<tag k="network" v="icn"/>
	</relation>
	<relation id="7667463" version="1">
		<member type="way" ref="680081456" role=""/>
		<member type="way" ref="533952362" role=""/>
		<member type="way" ref="533952363" role=""/>
		<member type="way" ref="533952361" role=""/>
		<tag k="name" v="DNXX Braila-Jijila"/>
		<tag k="type" v="route"/>
		<tag k="route" v="road"/>
	</relation>
	<relation id="7884303" version="1">
		<member type="relation" ref="156092" role=""/>
		<tag k="name" v="International European route network"/>
		<tag k="type" v="network"/>
		<tag k="name:an" v="Rete de carreteras europeas"/>
		<tag k="name:be" v="Сетка міжнародных еўрапейскіх аўтадарог"/>
		<tag k="name:bg" v="Европейска пътна мрежа"/>
		<tag k="name:bs" v="Međunarodna mreža E-puteva"/>
		<tag k="name:ca" v="Xarxa de carreteres europees"/>
		<tag k="name:cs" v="Evropské silnice"/>
		<tag k="name:cv" v="Европа автомаршручĕсем"/>
		<tag k="name:da" v="Europaveje"/>
		<tag k="name:de" v="Europastraßen"/>
		<tag k="name:el" v="Διεθνές δίκτυο Ε-οδών"/>
		<tag k="name:en" v="International European route network"/>
		<tag k="name:eo" v="Eŭropa ŝoseo"/>
		<tag k="name:es" v="Red de Carreteras Europeas"/>
		<tag k="name:et" v="Rahvusvaheline E-teede võrk"/>
		<tag k="name:fi" v="Eurooppatiet"/>
		<tag k="name:fr" v="Routes européennes"/>
		<tag k="name:hr" v="Europska mreža međunarodnih puteva"/>
		<tag k="name:hu" v="Európai úthálózat"/>
		<tag k="name:is" v="Evrópuvegur"/>
		<tag k="name:it" v="Strade europee"/>
		<tag k="name:ja" v="欧州自動車道路"/>
		<tag k="name:ka" v="ევროპის საერთაშორისო E საავტომობილო მაგისტრალების ქსელი"/>
		<tag k="name:ko" v="유럽 고속도로"/>
		<tag k="name:lb" v="Europastrooss"/>
		<tag k="name:lt" v="Tarptautinis Europos kelių tinklas"/>
		<tag k="name:nl" v="E-routenetwerk"/>
		<tag k="name:nn" v="Europavegar"/>
		<tag k="name:no" v="Europaveier"/>
		<tag k="name:pl" v="Międzynarodowa sieć tras europejskich"/>
		<tag k="name:pt" v="Estradas europeias"/>
		<tag k="name:ro" v="Rețeaua de drumuri europene"/>
		<tag k="name:sk" v="Európska cesta"/>
		<tag k="name:sl" v="Vseevropsko cestno omrežje"/>
		<tag k="name:sr" v="Европска мрежа међународних путева"/>
		<tag k="name:sv" v="Europavägar"/>
		<tag k="name:tr" v="Avrupa E-yolları"/>
		<tag k="name:uk" v="Мережа європейських автошляхів"/>
		<tag k="name:zh" v="欧洲高速公路"/>
		<tag k="network" v="Europaveje"/>
		<tag k="wikidata" v="Q106123"/>
		<tag k="wikipedia" v="en:International E-road network"/>
		<tag k="start_date" v="1975"/>
		<tag k="int_network" v="e-road"/>
		<tag k="name:sr-Latn" v="Evropska mreža međunarodnih puteva"/>
	</relation>
	<relation id="8815149" version="1">
		<member type="way" ref="229163547" role=""/>
		<member type="way" ref="226053855" role=""/>
		<tag k="ref" v="DN22"/>
		<tag k="type" v="route"/>
		<tag k="route" v="road"/>
		<tag k="colour" v="#ff0000"/>
		<tag k="network" v="RO:DN"/>
		<tag k="wikidata" v="Q2321207"/>
		<tag k="wikipedia" v="ro:DN22"/>
	</relation>
	<relation id="9219948" version="1">
		<member type="relation" ref="8815149" role="sub-relation"/>
		<tag k="ref" v="RO:DN"/>
		<tag k="type" v="super-relation"/>
		<tag k="name:en" v="Secondary National roads and their ramifications"/>
		<tag k="name:ro" v="Drumuri naționale secundare și ramificațiile lor"/>
	</relation>
	<relation id="9219951" version="1">
		<member type="relation" ref="9219948" role="sub-relation"/>
		<tag k="ref" v="RO"/>
		<tag k="name" v="Public roads in Romania"/>
		<tag k="type" v="super-relation"/>
	</relation>
</osm>
